Test of the functions gridpts, h1, hupdate • gsDesign2
…
approximate variance of standard normal (i.e., 1)

x1 <- gridpts_(mu = 0, a = -20, b = 20, r = 18)
x2 <- gridpts(mu = 0, a = -20, b = 20, r = 18)
x3a <- gsDesign::normalGrid(bounds = c(-10, 10), mu = 0, sigma = 1, r = 18)
x3b <- gsDesign::normalGrid(bounds = c(-20, 20), mu = 0, sigma = 1, r = 18)
x3c <- gsDesign::normalGrid(bounds = c(-80, 80), mu = 0, sigma = 1, r = 18)

tibble(z_x1 = x1$z,
       z_x2 = x2$z,
       z_x3b = x3b$z,
       z_diff = x2$z - x3b$z)

## # A tibble: 213 × 4
##      z_x1   z_x2  z_x3b z_diff
##     <dbl>  <dbl>  <dbl>  <dbl>
##  1 -14.6  -14.6  -14.6       0
##  2 -13.2  -13.2  -13.2       0
##  3 -11.8  -11.8  -11.8       0
##  4 -11.0  -11.0  -11.0       0
##  5 -10.2  -10.2  -10.2       0
##  6  -9.59  -9.59  -9.59      0
##  7  -9.02  -9.02  -9.02      0
##  8  -8.57  -8.57  -8.57      0
##  9  -8.12  -8.12  -8.12      0
## 10  -7.76  -7.76  -7.76      0
## # … with 203 more rows
…
